<?xml version="1.0" encoding="UTF-8" standalone="no"?>
<svg width="123.296mm" height="55.0333mm"
 viewBox="0 0 466 208"
 xmlns="http://www.w3.org/2000/svg" xmlns:xlink="http://www.w3.org/1999/xlink"  version="1.2" baseProfile="tiny">
<title>Qt SVG Document</title>
<desc>Generated with Qt</desc>
<defs>
</defs>
<g fill="none" stroke="black" stroke-width="1" fill-rule="evenodd" stroke-linecap="square" stroke-linejoin="bevel" >

<g fill="none" stroke="#000000" stroke-opacity="1" stroke-width="1" stroke-linecap="square" stroke-linejoin="bevel" transform="matrix(1,0,0,1,0,0)"
font-family="Noto Sans" font-size="13.3333" font-weight="400" font-style="normal" 
>
</g>

<g fill="none" stroke="#000000" stroke-opacity="1" stroke-width="1" stroke-linecap="square" stroke-linejoin="bevel" transform="matrix(1,0,0,1,0,0)"
font-family="Noto Sans" font-size="13.3333" font-weight="400" font-style="normal" 
>
</g>

<g fill="none" stroke="#000000" stroke-opacity="1" stroke-width="1" stroke-linecap="square" stroke-linejoin="bevel" transform="matrix(0.990333,0,0,0.990333,7581.01,11242.1)"
font-family="Noto Sans" font-size="13.3333" font-weight="400" font-style="normal" 
>
</g>

<g fill="#ffffff" fill-opacity="1" stroke="none" transform="matrix(0.990333,0,0,0.990333,7581.01,11242.1)"
font-family="Noto Sans" font-size="13.3333" font-weight="400" font-style="normal" 
>
<rect x="-7655.01" y="-11351.8" width="468.157" height="210.03"/>
</g>

<g fill="none" stroke="#000000" stroke-opacity="1" stroke-width="1" stroke-linecap="square" stroke-linejoin="bevel" transform="matrix(0.990333,0,0,0.990333,7581.01,11242.1)"
font-family="Noto Sans" font-size="13.3333" font-weight="400" font-style="normal" 
>
</g>

<g fill="none" stroke="#000000" stroke-opacity="1" stroke-width="1" stroke-linecap="square" stroke-linejoin="bevel" transform="matrix(0.990333,0,0,0.990333,0.990333,0.990333)"
font-family="Noto Sans" font-size="13.3333" font-weight="400" font-style="normal" 
>
</g>

<g fill="#ffffc0" fill-opacity="1" stroke="#990000" stroke-opacity="1" stroke-width="1" stroke-linecap="square" stroke-linejoin="bevel" transform="matrix(0.990333,0,0,0.990333,0.990333,0.990333)"
font-family="Noto Sans" font-size="13.3333" font-weight="400" font-style="normal" 
>
<rect vector-effect="non-scaling-stroke" x="0" y="0" width="466" height="208"/>
</g>

<g fill="#ffffc0" fill-opacity="1" stroke="#000000" stroke-opacity="1" stroke-width="1" stroke-linecap="square" stroke-linejoin="bevel" transform="matrix(0.990333,0,0,0.990333,0.990333,0.990333)"
font-family="Noto Sans" font-size="13.3333" font-weight="700" font-style="normal" 
>
</g>

<g fill="#ffffc0" fill-opacity="1" stroke="#000000" stroke-opacity="1" stroke-width="1" stroke-linecap="square" stroke-linejoin="bevel" transform="matrix(0.990333,0,0,0.990333,0.990333,0.990333)"
font-family="Noto Sans" font-size="13.3333" font-weight="700" font-style="normal" 
>
<text fill="#000000" fill-opacity="1" stroke="none" xml:space="preserve" x="206.469" y="14" font-family="Noto Sans" font-size="13.3333" font-weight="700" font-style="normal" 
 >Account</text>
</g>

<g fill="#ffffc0" fill-opacity="1" stroke="#990000" stroke-opacity="1" stroke-width="1" stroke-linecap="square" stroke-linejoin="bevel" transform="matrix(0.990333,0,0,0.990333,0.990333,0.990333)"
font-family="Noto Sans" font-size="13.3333" font-weight="400" font-style="normal" 
>
<polyline fill="none" vector-effect="non-scaling-stroke" points="0,18 466,18 " />
</g>

<g fill="#ffffc0" fill-opacity="1" stroke="#000000" stroke-opacity="1" stroke-width="1" stroke-linecap="square" stroke-linejoin="bevel" transform="matrix(0.990333,0,0,0.990333,0.990333,0.990333)"
font-family="Noto Sans" font-size="13.3333" font-weight="400" font-style="normal" 
>
</g>

<g fill="#ffffc0" fill-opacity="1" stroke="#000000" stroke-opacity="1" stroke-width="1" stroke-linecap="square" stroke-linejoin="bevel" transform="matrix(0.990333,0,0,0.990333,0.990333,0.990333)"
font-family="Noto Sans" font-size="13.3333" font-weight="400" font-style="normal" 
>
</g>

<g fill="#ffffc0" fill-opacity="1" stroke="#000000" stroke-opacity="1" stroke-width="1" stroke-linecap="square" stroke-linejoin="bevel" transform="matrix(0.990333,0,0,0.990333,0.990333,0.990333)"
font-family="Noto Sans" font-size="13.3333" font-weight="400" font-style="normal" 
>
<text fill="#000000" fill-opacity="1" stroke="none" xml:space="preserve" x="5" y="32" font-family="Noto Sans" font-size="13.3333" font-weight="400" font-style="normal" 
 >- balance_ : long long = 0</text>
</g>

<g fill="#ffffc0" fill-opacity="1" stroke="#000000" stroke-opacity="1" stroke-width="1" stroke-linecap="square" stroke-linejoin="bevel" transform="matrix(0.990333,0,0,0.990333,0.990333,0.990333)"
font-family="Noto Sans" font-size="13.3333" font-weight="400" font-style="normal" 
>
</g>

<g fill="#ffffc0" fill-opacity="1" stroke="#000000" stroke-opacity="1" stroke-width="1" stroke-linecap="square" stroke-linejoin="bevel" transform="matrix(0.990333,0,0,0.990333,0.990333,0.990333)"
font-family="Noto Sans" font-size="13.3333" font-weight="400" font-style="normal" 
>
<text fill="#000000" fill-opacity="1" stroke="none" xml:space="preserve" x="5" y="50" font-family="Noto Sans" font-size="13.3333" font-weight="400" font-style="normal" 
 >- owner_ : string</text>
</g>

<g fill="#ffffc0" fill-opacity="1" stroke="#000000" stroke-opacity="1" stroke-width="1" stroke-linecap="square" stroke-linejoin="bevel" transform="matrix(0.990333,0,0,0.990333,0.990333,0.990333)"
font-family="Noto Sans" font-size="13.3333" font-weight="400" font-style="normal" 
>
</g>

<g fill="#ffffc0" fill-opacity="1" stroke="#000000" stroke-opacity="1" stroke-width="1" stroke-linecap="square" stroke-linejoin="bevel" transform="matrix(0.990333,0,0,0.990333,0.990333,0.990333)"
font-family="Noto Sans" font-size="13.3333" font-weight="400" font-style="normal" 
>
<text fill="#000000" fill-opacity="1" stroke="none" xml:space="preserve" x="5" y="68" font-family="Noto Sans" font-size="13.3333" font-weight="400" font-style="normal" 
 >- number_ : unsigned long</text>
</g>

<g fill="#ffffc0" fill-opacity="1" stroke="#000000" stroke-opacity="1" stroke-width="1" stroke-linecap="square" stroke-linejoin="bevel" transform="matrix(0.990333,0,0,0.990333,0.990333,0.990333)"
font-family="Noto Sans" font-size="13.3333" font-weight="400" font-style="normal" 
>
</g>

<g fill="#ffffc0" fill-opacity="1" stroke="#990000" stroke-opacity="1" stroke-width="1" stroke-linecap="square" stroke-linejoin="bevel" transform="matrix(0.990333,0,0,0.990333,0.990333,0.990333)"
font-family="Noto Sans" font-size="13.3333" font-weight="400" font-style="normal" 
>
<polyline fill="none" vector-effect="non-scaling-stroke" points="0,72 466,72 " />
</g>

<g fill="#ffffc0" fill-opacity="1" stroke="#000000" stroke-opacity="1" stroke-width="1" stroke-linecap="square" stroke-linejoin="bevel" transform="matrix(0.990333,0,0,0.990333,0.990333,0.990333)"
font-family="Noto Sans" font-size="13.3333" font-weight="400" font-style="normal" 
>
</g>

<g fill="#ffffc0" fill-opacity="1" stroke="#000000" stroke-opacity="1" stroke-width="1" stroke-linecap="square" stroke-linejoin="bevel" transform="matrix(0.990333,0,0,0.990333,0.990333,0.990333)"
font-family="Noto Sans" font-size="13.3333" font-weight="400" font-style="normal" 
>
</g>

<g fill="#ffffc0" fill-opacity="1" stroke="#000000" stroke-opacity="1" stroke-width="1" stroke-linecap="square" stroke-linejoin="bevel" transform="matrix(0.990333,0,0,0.990333,0.990333,0.990333)"
font-family="Noto Sans" font-size="13.3333" font-weight="400" font-style="normal" 
>
</g>

<g fill="#ffffc0" fill-opacity="1" stroke="#000000" stroke-opacity="1" stroke-width="1" stroke-linecap="square" stroke-linejoin="bevel" transform="matrix(0.990333,0,0,0.990333,0.990333,0.990333)"
font-family="Noto Sans" font-size="13.3333" font-weight="400" font-style="normal" 
>
<text fill="#000000" fill-opacity="1" stroke="none" xml:space="preserve" x="5" y="86" font-family="Noto Sans" font-size="13.3333" font-weight="400" font-style="normal" 
 >+ Account(owner : string, number : unsigned long)</text>
</g>

<g fill="#ffffc0" fill-opacity="1" stroke="#000000" stroke-opacity="1" stroke-width="1" stroke-linecap="square" stroke-linejoin="bevel" transform="matrix(0.990333,0,0,0.990333,0.990333,0.990333)"
font-family="Noto Sans" font-size="13.3333" font-weight="400" font-style="normal" 
>
</g>

<g fill="#ffffc0" fill-opacity="1" stroke="#000000" stroke-opacity="1" stroke-width="1" stroke-linecap="square" stroke-linejoin="bevel" transform="matrix(0.990333,0,0,0.990333,0.990333,0.990333)"
font-family="Noto Sans" font-size="13.3333" font-weight="400" font-style="normal" 
>
<text fill="#000000" fill-opacity="1" stroke="none" xml:space="preserve" x="5" y="104" font-family="Noto Sans" font-size="13.3333" font-weight="400" font-style="normal" 
 >+ Account(owner : string, number : unsigned long, deposit : unsigned int)</text>
</g>

<g fill="#ffffc0" fill-opacity="1" stroke="#000000" stroke-opacity="1" stroke-width="1" stroke-linecap="square" stroke-linejoin="bevel" transform="matrix(0.990333,0,0,0.990333,0.990333,0.990333)"
font-family="Noto Sans" font-size="13.3333" font-weight="400" font-style="normal" 
>
</g>

<g fill="#ffffc0" fill-opacity="1" stroke="#000000" stroke-opacity="1" stroke-width="1" stroke-linecap="square" stroke-linejoin="bevel" transform="matrix(0.990333,0,0,0.990333,0.990333,0.990333)"
font-family="Noto Sans" font-size="13.3333" font-weight="400" font-style="normal" 
>
<text fill="#000000" fill-opacity="1" stroke="none" xml:space="preserve" x="5" y="122" font-family="Noto Sans" font-size="13.3333" font-weight="400" font-style="normal" 
 >+ deposit(amount : unsigned int)</text>
</g>

<g fill="#ffffc0" fill-opacity="1" stroke="#000000" stroke-opacity="1" stroke-width="1" stroke-linecap="square" stroke-linejoin="bevel" transform="matrix(0.990333,0,0,0.990333,0.990333,0.990333)"
font-family="Noto Sans" font-size="13.3333" font-weight="400" font-style="normal" 
>
</g>

<g fill="#ffffc0" fill-opacity="1" stroke="#000000" stroke-opacity="1" stroke-width="1" stroke-linecap="square" stroke-linejoin="bevel" transform="matrix(0.990333,0,0,0.990333,0.990333,0.990333)"
font-family="Noto Sans" font-size="13.3333" font-weight="400" font-style="normal" 
>
<text fill="#000000" fill-opacity="1" stroke="none" xml:space="preserve" x="5" y="140" font-family="Noto Sans" font-size="13.3333" font-weight="400" font-style="normal" 
 >+ withdraw(amount : unsigned int) : unsigned int</text>
</g>

<g fill="#ffffc0" fill-opacity="1" stroke="#000000" stroke-opacity="1" stroke-width="1" stroke-linecap="square" stroke-linejoin="bevel" transform="matrix(0.990333,0,0,0.990333,0.990333,0.990333)"
font-family="Noto Sans" font-size="13.3333" font-weight="400" font-style="normal" 
>
</g>

<g fill="#ffffc0" fill-opacity="1" stroke="#000000" stroke-opacity="1" stroke-width="1" stroke-linecap="square" stroke-linejoin="bevel" transform="matrix(0.990333,0,0,0.990333,0.990333,0.990333)"
font-family="Noto Sans" font-size="13.3333" font-weight="400" font-style="normal" 
>
<text fill="#000000" fill-opacity="1" stroke="none" xml:space="preserve" x="5" y="158" font-family="Noto Sans" font-size="13.3333" font-weight="400" font-style="normal" 
 >+ balance() : long long</text>
</g>

<g fill="#ffffc0" fill-opacity="1" stroke="#000000" stroke-opacity="1" stroke-width="1" stroke-linecap="square" stroke-linejoin="bevel" transform="matrix(0.990333,0,0,0.990333,0.990333,0.990333)"
font-family="Noto Sans" font-size="13.3333" font-weight="400" font-style="normal" 
>
</g>

<g fill="#ffffc0" fill-opacity="1" stroke="#000000" stroke-opacity="1" stroke-width="1" stroke-linecap="square" stroke-linejoin="bevel" transform="matrix(0.990333,0,0,0.990333,0.990333,0.990333)"
font-family="Noto Sans" font-size="13.3333" font-weight="400" font-style="normal" 
>
<text fill="#000000" fill-opacity="1" stroke="none" xml:space="preserve" x="5" y="176" font-family="Noto Sans" font-size="13.3333" font-weight="400" font-style="normal" 
 >+ number() : unsigned long</text>
</g>

<g fill="#ffffc0" fill-opacity="1" stroke="#000000" stroke-opacity="1" stroke-width="1" stroke-linecap="square" stroke-linejoin="bevel" transform="matrix(0.990333,0,0,0.990333,0.990333,0.990333)"
font-family="Noto Sans" font-size="13.3333" font-weight="400" font-style="normal" 
>
</g>

<g fill="#ffffc0" fill-opacity="1" stroke="#000000" stroke-opacity="1" stroke-width="1" stroke-linecap="square" stroke-linejoin="bevel" transform="matrix(0.990333,0,0,0.990333,0.990333,0.990333)"
font-family="Noto Sans" font-size="13.3333" font-weight="400" font-style="normal" 
>
<text fill="#000000" fill-opacity="1" stroke="none" xml:space="preserve" x="5" y="194" font-family="Noto Sans" font-size="13.3333" font-weight="400" font-style="normal" 
 >+ owner() : string</text>
</g>

<g fill="#ffffc0" fill-opacity="1" stroke="#000000" stroke-opacity="1" stroke-width="1" stroke-linecap="square" stroke-linejoin="bevel" transform="matrix(0.990333,0,0,0.990333,0.990333,0.990333)"
font-family="Noto Sans" font-size="13.3333" font-weight="400" font-style="normal" 
>
</g>

<g fill="#ffffc0" fill-opacity="1" stroke="#000000" stroke-opacity="1" stroke-width="1" stroke-linecap="square" stroke-linejoin="bevel" transform="matrix(0.990333,0,0,0.990333,0.990333,0.990333)"
font-family="Noto Sans" font-size="13.3333" font-weight="400" font-style="normal" 
>
</g>

<g fill="#ffffc0" fill-opacity="1" stroke="#000000" stroke-opacity="1" stroke-width="1" stroke-linecap="square" stroke-linejoin="bevel" transform="matrix(1,0,0,1,0,0)"
font-family="Noto Sans" font-size="13.3333" font-weight="400" font-style="normal" 
>
</g>

<g fill="none" stroke="#000000" stroke-opacity="1" stroke-width="1" stroke-linecap="square" stroke-linejoin="bevel" transform="matrix(0.990333,0,0,0.990333,0.990333,0.990333)"
font-family="Noto Sans" font-size="13.3333" font-weight="400" font-style="normal" 
>
</g>

<g fill="none" stroke="#000000" stroke-opacity="1" stroke-width="1" stroke-linecap="square" stroke-linejoin="bevel" transform="matrix(1,0,0,1,0,0)"
font-family="Noto Sans" font-size="13.3333" font-weight="400" font-style="normal" 
>
</g>
</g>
</svg>
