{
    // See https://go.microsoft.com/fwlink/?LinkId=733558
    // for the documentation about the tasks.json format
    "version": "2.0.0",
    "tasks": [
        {
            "label": "clang",
            "type": "shell",
            "command": "clang",
            "args": [
                "-g",
                "${file}"
            ],
            "options": {
                "cwd": "${fileDirname}"
            },
            "group": {
                "kind": "build",
                "isDefault": true
            }
        }
    ]
}